0,77.409,77.409,77.409
1,77.816,77.824,77.967
2,78.542,78.206,78.553
3,79.421,79.193,78.924
4,79.593,80.29,78.949
5,79.508,80.311,80.774
6,80.154,80.104,80.438
7,80.623,80.695,81.094
8,82.017,81.482,80.216
9,82.644,82.228,80.021
10,83.379,82.108,81.272
11,82.359,81.889,82.677
12,85.203,84.001,84.048
13,84.455,83.99,81.32
14,83.911,85.047,85.573
15,85.868,83.712,86.295
16,82.665,84.732,86.603
17,83.291,82.75,85.517
18,86.56,87.042,86.862
19,88.508,83.037,86.711
20,86.567,86.157,85.855
21,84.665,87.073,84.797
22,84.788,85.174,87.089
23,86.236,87.443,85.759
24,91.352,87.246,89.96
25,89.022,91.145,89.272
26,81.896,90.844,87.189
27,90.632,91.407,93.179
28,86.467,88.864,91.124
29,91.317,90.627,89.673
30,89.915,88.705,90.775
31,93.369,90.824,91.152
32,91.371,94.296,94.911
33,90.369,93.15,95.456
34,92.136,96.054,92.676
35,96.303,93.878,93.815
36,88.705,93.322,91.044
37,92.529,93.306,89.449
38,90.405,91.738,95.753
39,94.863,89.94,92.068
40,96.925,97.702,94.334
41,89.965,90.355,93.561
42,82.845,93.909,93.412
43,97.255,93.964,94.929
44,93.788,96.745,97.328
45,96.731,95.721,98.938
46,95.73,96.537,96.094
47,94.48,100.44,92.727
48,96.202,97.289,94.63
49,93.663,92.008,97.269
50,101.86,92.082,99.607
51,94.235,100.49,98.326
52,94.79,99.144,90.992
53,95.868,96.469,100.55
54,93.389,95.743,94.377
55,94.313,97.867,98.798
56,97.242,98.374,98.277
57,98.841,99.294,102.91
58,99.79,100.64,92.509
59,97.944,94.673,100.34
60,98.097,99.335,95.761
61,100.64,101.11,95.644
62,95.807,99.412,94.994
63,96.874,100.12,96.921
64,100.36,100.08,98.343
65,96.194,98.945,99.999
66,103.94,97.918,98.722
67,98.916,101.71,102.12
68,103.39,104.56,105.97
69,96.572,102.31,102.3
70,104.22,98.339,102.63
71,97.108,103.06,104.31
72,102.11,103.37,103.94
73,103,106.4,101.01
74,107.41,102.42,97.414
75,99.231,100.73,101.19
76,102.46,99.726,102.05
77,100.91,105.01,96.962
78,98.299,105.95,101.89
79,101.94,97.735,103.76
80,103.9,102.53,106.14
81,102.4,103.37,103.47
82,101.98,99.701,102.92
83,101.56,101.49,98.061
84,102.04,100.02,104.41
85,106,99.054,107.03
86,107.82,105.77,99.103
87,103.3,106.57,103.87
88,101.3,104.43,103.19
89,107.14,103.48,102.88
90,105.16,98.469,101.62
91,103.69,106.83,103.58
92,103.52,104.03,108.46
93,103.93,99.545,97.331
94,104.74,100.58,104.03
95,105.88,100.41,103.1
96,103.4,99.645,105.87
97,106.54,107.85,106.36
98,105.17,106.94,101.78
99,106.63,109.06,106.28
100,105.69,105.09,107.68
101,107.58,106.69,104.89
102,106.15,105.94,108.1
103,110.16,106.52,108.98
104,102.92,99.686,102.49
105,110.24,105.65,107.53
106,103.75,109.54,105.47
107,102.58,107.24,99.532
108,108.03,110.55,108.06
109,110.06,102.62,109.63
110,108.21,106.64,107.08
111,110.76,106.91,107.13
112,107.08,107.02,110.42
113,105.8,108.31,107.76
114,110.34,107.52,108.81
115,109.77,106,105.24
116,111.51,107.66,104.62
117,111.24,106.7,107.55
118,107.43,108.53,110.5
119,112.42,110.18,110.14
120,107.53,111.01,111.76
121,104.23,109.33,106.34
122,106.91,111.59,108.74
123,113.34,105.66,107.91
124,108.88,108.92,106.56
125,107.32,106.31,110.41
126,108.53,105.33,113.61
127,107.66,102.09,107.23
128,110.15,110.34,104.54
129,109.45,110.52,108.61
130,107.68,106.58,110.63
131,111.27,109.78,111.04
132,106.76,111.33,110.47
133,111.27,111.41,110.84
134,107.07,108.63,107.85
135,107.68,112.79,112.3
136,107.81,112.1,109.92
137,110.95,106.87,109.1
138,109.94,107.56,108.84
139,106.73,107.84,110.39
140,111.36,109.67,111.05
141,107.41,110.9,109.12
142,112.63,112.3,109.28
143,111.85,108.7,101.49
144,107.48,107.69,110.63
145,110.95,104.58,110.48
146,113.63,108.03,112.96
147,101.39,109.16,110.11
148,107.87,111.45,111.44
149,108.37,99.064,108.74
150,109.9,111.1,109.67
151,110.35,110.26,106.18
152,109.25,105.37,110.66
153,106.97,112.86,113.45
154,108.88,113.4,111.07
155,105.33,111.45,111.84
156,113.14,108.74,111.29
157,106.07,111.84,111.96
158,109.61,112.88,113.38
159,110.98,113.1,111.32
160,111.96,110.65,105.39
161,111.34,111.78,113.64
162,109.1,113.58,112.82
163,112.55,110.01,113.38
164,110.43,113.87,114.12
165,110.36,112.92,111.06
166,109.89,110.43,113.13
167,113.07,110.11,114.05
168,112.86,109.44,113.66
169,111.27,112.89,110.98
170,113.06,113.43,107.99
171,108.72,112.85,113.78
172,111.95,114.14,113.52
173,111.2,113.63,108.72
174,111.89,114.13,113.32
175,109.15,112.52,112.12
176,113.56,108.55,113.36
177,111.74,110.51,112.45
178,113.44,111.13,113.47
179,113.52,110.69,113.24
180,111.29,110.48,113.53
181,113.75,114.88,111.73
182,112.25,113.84,112.69
183,110.67,112.66,112.09
184,110.69,110.36,111.31
185,112.43,109.88,113.68
186,113.26,114.1,112.26
187,112.75,114,114.3
188,113.14,110.37,113.04
189,112.7,109.14,107.82
190,110.57,113.31,113.71
191,111.21,105.16,112.95
192,113.61,112.31,113.88
193,114.1,113.62,111.24
194,113.28,114.61,112.41
195,111.46,110.62,113.86
196,115.05,112.63,109.7
197,110.74,113.52,113.54
198,114.53,112.52,108.1
199,104.55,112.6,112.88
200,113.87,113.17,113.67
201,113.36,113.25,110.68
202,110.78,112.59,114.08
203,112.94,112.32,114.25
204,114.37,113.63,114.33
205,113.13,112.53,114.09
206,113.41,114.61,112.31
207,114.49,111.73,113.5
208,112,115.03,113.25
209,113.41,106.89,113.58
210,114.27,114.57,114.24
211,112.4,114.03,113.6
212,114.66,113.22,114.33
213,114.98,114.12,112.54
214,114.67,113.97,112.82
215,111.37,114.09,109.79
216,114.57,114.05,114.63
217,113.46,113.75,112.62
218,113.97,112.93,113.27
219,115.19,114.28,113.6
220,114.3,114.78,113.32
221,114.05,115.27,114.83
222,113.99,115.16,113.89
223,114.2,114.8,112.02
224,115.1,114.41,111.81
225,113.85,113.95,114.09
226,115.16,114.59,113.41
227,112.8,110.99,114.36
228,115.26,114.36,110.64
229,113.71,113.48,114.87
230,114.74,113.62,114.76
231,115.09,114.78,114.66
232,112.68,114.7,113.34
233,112.76,114.8,114.68
234,114.05,114.34,115.13
235,114.65,114.32,114.8
236,113.27,115.1,114.84
237,114.79,115,115.55
238,113.43,115.32,115.5
239,113.74,115.22,115.23
240,115.4,115.32,114.02
241,114.48,114.68,114.36
242,115.31,114.68,113.46
243,115.01,114.51,114.53
244,114.5,115.08,114.7
245,114.47,114.83,114.52
246,112.37,114.94,115.21
247,115.55,115.32,112.13
248,114.28,113.83,113.9
249,113.94,113.08,115.01
250,115.07,114.25,115.14
251,115.38,114.83,113.07
252,114.1,115.37,114.62
253,115.26,115.22,114.46
254,115.49,115.42,114.69
255,113.34,114.42,114.25
256,115.4,115.26,114.93
257,114.86,112.5,114.53
258,115.13,112.94,115.43
259,114.89,111.81,115.25
260,114.35,114.37,114.44
261,115.49,114.73,115.75
262,114.58,113.38,114.51
263,113.43,115.51,114.97
264,114.84,115.4,115.69
265,114.51,112.15,112.66
266,114.19,115.33,114.15
267,115.61,114.38,114.91
268,115.71,115.3,114.1
269,114.65,114.17,115.23
270,115.46,115.09,113.49
271,115.7,113.99,114.84
272,115.42,113.19,115.53
273,113.6,114.14,114.55
274,114.32,115.25,115.29
275,114.71,115.5,111.39
276,115.32,114.98,114.77
277,115.03,114.33,115.3
278,115.79,114.94,115.28
279,114.65,115.25,115.43
280,115.38,115.14,113.18
281,115.48,115.4,115.38
282,115.67,114.58,114.7
283,114.88,115.27,115.7
284,115.48,115.35,115.58
285,114.77,113.99,115.6
286,115.5,115.51,115.62
287,115.22,114.55,114.4
288,114.84,115.75,115.15
289,115.28,114.89,115.2
290,115.74,114.1,115.29
291,114.97,115.42,115.66
292,113.61,114.37,115.52
293,115.33,115.19,115.41
294,114.24,115.22,113.52
295,114.91,115.55,115.22
296,115.62,115.38,113.72
297,114.71,115.67,115.3
298,115.25,115.43,115.29
299,115.57,115.47,114.79
300,115.62,115.35,114.1
301,115.62,115.35,114.1
302,117.1,116.93,115.4
303,118.82,116.86,117.2
304,119.86,119.1,119.21
305,120.82,120.06,118.13
306,122.04,121,118.57
307,122.82,123,121.15
308,119.41,122.96,122.51
309,126.09,125.09,125.58
310,125.6,124.02,125.76
311,126.54,126.75,126.14
312,126.44,125.71,124.22
313,125.45,128.04,126.37
314,129.17,129,130.23
315,131.94,133.84,127.28
316,131.37,134.75,128.49
317,130.93,133.82,129.93
318,128.91,130.51,136.91
319,134.04,135.37,134.38
320,136.38,137.01,137.79
321,134.8,133.26,135.82
322,137.6,137.84,137.51
323,136.88,136.16,134.96
324,140.8,135.27,135.32
325,133.18,136.3,134.35
326,142.32,140,137.66
327,136.82,138.23,142.07
328,144.78,142.67,136.17
329,140.13,139,136.26
330,139.06,140.13,132.27
331,141.76,140.94,139.87
332,143.4,137.98,142
333,139.11,141.13,146.01
334,141.61,142.69,137
335,143.79,142.42,143.04
336,137.66,147.71,143.86
337,138,142.24,139.39
338,146.27,145.96,144.54
339,147.37,142.11,141.11
340,145.08,143.9,147.25
341,140.37,146.81,142.77
342,148.39,145.89,143.87
343,146.98,148.28,143.5
344,146.78,146.44,145.07
345,145.73,148.69,148.59
346,141.26,142.85,148.19
347,147.63,135.53,147.24
348,149.73,144.94,149.37
349,140.57,148.93,142.59
350,145.81,147.8,148.6
351,150.87,145.76,144.94
352,151.34,148.15,149.09
353,145.79,142.79,152.27
354,147,151.02,149.97
355,149.51,151.28,151.55
356,148.84,143.81,151.85
357,147.28,152.08,150.18
358,143.55,150.41,150.63
359,148.62,148.44,149.94
360,150.26,150.05,151.16
361,151.97,147.78,151.85
362,148.01,152.58,148.97
363,147.9,153.68,151.97
364,152.96,150.51,150.88
365,152.11,148.66,146.83
366,142.72,150.01,152.65
367,151.03,152.37,148.02
368,151.68,153.07,150.16
369,154.52,150,151.78
370,151.15,152.21,150.46
371,150.36,151.69,149.8
372,153.75,152.41,152.6
373,149.78,151.09,143.41
374,151.76,152.73,153.77
375,152.55,154.47,154.27
376,152.05,149.34,151.88
377,155.13,153.03,152.77
378,154.71,154.45,153.73
379,153.51,152.76,153.74
380,152.73,151.67,152.61
381,152.54,155.08,154.99
382,152.74,153.87,154.74
383,156,154.53,155.4
384,154.53,152.96,153.7
385,155.01,152.82,155.61
386,155.56,153.22,154.46
387,154.23,155.12,153.84
388,152.6,154.86,155.9
389,153.8,149.33,153.67
390,153.64,153.04,155.58
391,155.31,151.88,152.02
392,154.98,154.95,146.78
393,153.87,154.74,154.92
394,154.96,151.05,154.23
395,155.77,156.1,154.83
396,155.07,139.96,155.59
397,156.28,155.25,154.11
398,155.75,155.27,156.32
399,153.81,155.67,154.85
400,155.49,154.11,155.5
401,155.58,154.31,156.09
402,154.5,156.06,154.32
403,155.74,155.21,156.03
404,154.91,154.6,156.33
405,156.23,155.75,156.15
406,156.64,155.82,154.52
407,153.14,156.23,153.72
408,156.64,151.1,153.86
409,155.04,154.44,155.37
410,154.43,156.27,155.27
411,153.61,155.82,153.24
412,154.79,155.83,154.55
413,155.94,155.79,156.26
414,156.55,155.11,153.77
415,153.29,156.35,156.5
416,154.76,154.62,155.75
417,155.59,154.58,154.15
418,155.35,155.94,156.24
419,156.18,155.12,156.52
420,154.19,155.21,155.96
421,156.25,155.1,156.43
422,156.25,155.1,156.43
423,154.97,154.33,155.19
424,153.63,151.83,154.08
425,152.67,153.3,152.03
426,150.87,149.64,150.96
427,147.34,149.62,148.76
428,148.74,148.38,144.95
429,149.27,145.44,148.13
430,147.43,146,147.67
431,143.5,143.21,146.31
432,142,143.21,145.31
433,144.5,143.62,142.7
434,142.48,141.31,144.52
435,141.57,139.66,143.71
436,142.42,137.04,139.95
437,135.39,139.54,139.33
438,141.74,139.33,141.22
439,137.09,140.12,135.99
440,135.66,134.36,135.77
441,137.09,137.76,134.03
442,132.44,133.41,135.63
443,133.48,139.25,131.29
444,131.68,134.23,131
445,133.96,137.69,130.55
446,130.99,132.41,137.35
447,134.31,136.05,132.16
448,128.15,135.44,130.67
449,132.64,128.97,127.58
450,130.79,137.99,138.88
451,126.29,132.81,126.72
452,130.58,129.11,129.03
453,118.06,125.64,128.03
454,122.49,129.5,122.95
455,119.82,128.86,128.01
456,127.91,123.34,117.52
457,123.11,122.12,128.94
458,119.2,122.62,121.05
459,126.17,120.06,121.35
460,127.34,125.4,120.94
461,119.84,123.72,122.96
462,117.58,118.72,124.06
463,122.4,124.98,116.39
464,128.49,119.08,126.49
465,121.26,126.76,118.04
466,126.17,119.95,126.14
467,120.38,119.95,115.79
468,116.86,117.41,115.89
469,120.08,112.93,122.06
470,116.1,116.72,128.36
471,115.11,114.51,129.42
472,111.9,123.62,120.24
473,115.86,113.66,111.57
474,116.9,114.16,114.37
475,118.34,112.29,113.44
476,120.05,112.6,113.4
477,106.43,106.75,114.59
478,118.53,107.6,113.37
479,108.29,115.18,115.93
480,109.62,118.9,113.66
481,113.05,115.1,119.97
482,108.6,110.35,125.48
483,112.34,115.39,112.6
484,106.65,107.3,109.56
485,110.6,106.15,110.97
486,110.3,107.73,117.38
487,112.83,111.71,112.64
488,107.33,107.21,113.4
489,113.05,107.34,108.54
490,112.38,106.79,105.68
491,109.14,106.99,115.22
492,111.35,111.31,112.65
493,112.97,109.33,105.98
494,106.46,109.18,107.35
495,108.5,112.96,107.98
496,113.31,112.4,105.26
497,107.16,111.42,111.76
498,107.83,108.3,106.61
499,107.2,106.09,111.85
500,106.83,105.08,116.17
501,105.73,104.28,108.25
502,105.22,110.09,109.38
503,104.59,104.79,108.51
504,113.11,115.37,109.21
505,103,108.05,105.4
506,115.56,104.93,108.32
507,104.73,103.87,107.37
508,108.06,105.97,103.29
509,108.21,105.59,111.14
510,106.31,107.27,107.63
511,105.55,109.33,107.28
512,106.12,104.42,109.34
513,106.66,104.05,104.52
514,113.59,105.33,105.12
515,105.02,103.33,101.35
516,104.95,105.05,105.29
517,103.55,103.5,104.47
518,104.84,107.06,102.53
519,104.99,103.7,103.72
520,105.02,104.72,104.43
521,104.72,103.67,105.1
522,103.78,104.77,106.04
523,106.14,103.64,104.41
524,101.73,104.29,108.17
525,104.11,103.18,105.74
526,104.65,103.55,103.57
527,104.19,108.82,107.1
528,103.35,102.09,106.52
529,103.91,104.33,101.8
530,104.83,105.5,102.23
531,103.46,106.41,102.47
532,108.71,102.12,112.87
533,103.33,103.39,100.63
534,102.69,104.84,102.85
535,103.16,104.45,102.94
536,104.48,101.44,102.85
537,103.17,103.58,102.6
538,102.65,101.29,102.38
539,102.3,104.33,105.61
540,103.14,103.07,104.87
541,106.37,104.29,104.18
542,103.19,107.22,101.87
543,106.17,103.82,104.33
544,101.43,100.58,103.46
545,103.01,103.31,102.42
546,104.44,101.12,107.84
547,102.07,103.98,102.41
548,100.4,102.04,100.76
549,103.87,101.64,104.33
550,103.17,103.82,100.83
551,112.15,100.7,101.32
552,100.31,102.71,101.48
553,103.95,100.89,100.36
554,101.61,106.71,103.22
555,104.36,101.31,103.15
556,101.38,106.11,101.49
557,102.76,100.52,102.26
558,101.12,106.64,100.42
559,101.47,104.53,104.02
560,102.09,101.04,102.11
561,101.16,100.98,100.98
562,100.63,99.984,103.94
563,101.36,105.01,101.09
564,101.24,101.02,99.793
565,100.24,101.18,102.06
566,101.29,102.12,102.69
567,105.66,106.92,102.88
568,101.8,100.93,104.38
569,102.06,103.53,100.72
570,101.72,101.31,100.05
571,105.31,103.55,100.33
572,101.34,99.968,100.85
573,100.38,100.33,100.86
574,100.94,100.29,100.27
575,99.87,99.792,102.16
576,100.43,103.08,102.28
577,101.94,105.43,101.42
578,100.65,101,100.82
579,100.76,101.46,101.18
580,100.31,100.2,100.41
581,100.96,100.8,101.29
582,101.31,100.26,100.41
583,103.99,99.932,100.43
584,100.36,100.1,100.03
585,100.27,102.07,100.34
586,99.735,101.45,101.67
587,100.88,100.19,99.862
588,100.3,100.84,99.833
589,102.77,104.36,100.48
590,99.707,99.964,99.662
591,99.647,102.36,102.57
592,99.986,99.973,103.37
593,100.24,100.45,99.792
594,100.01,100.12,100.29
595,100.22,100.11,100.51
596,101.2,100.25,100.61
597,101.62,99.616,100.48
598,100.11,100.62,104.44
599,100.05,99.778,100.24
600,99.66,102.03,100.33
601,103.04,100.7,100.66
602,101.18,101.29,100.28
603,99.617,100.09,100.63
604,99.797,100.06,101.99
605,102.38,100.21,99.842
606,104.24,103.25,100.44
607,99.551,100.53,99.854
608,99.85,99.533,99.721
609,99.914,101.03,100.45
610,99.779,100.49,99.926
611,100.85,100.98,102.08
612,99.845,101.8,102.64
613,103.04,100.25,100.11
614,99.591,100.53,99.897
615,100.25,100.16,101.35
616,105.13,99.669,99.773
617,99.989,99.941,99.733
618,101.83,99.698,99.852
619,99.671,100.66,100.11
620,99.762,99.794,99.669
621,99.598,100.56,100.36
622,99.566,100.03,99.485
623,101.05,99.946,100.27
624,100.53,99.741,99.601
625,101.53,99.884,99.724
626,99.864,99.627,100.5
627,99.807,99.764,99.93
628,100.87,99.864,99.683
629,100.7,99.533,99.68
630,100.23,99.892,99.626
631,99.621,99.531,99.894
632,99.985,101.3,99.892
633,99.962,99.89,100.12
634,100.09,99.573,100.85
635,101.69,99.733,99.841
636,99.855,99.747,99.523
637,100.36,99.62,99.941
638,100.04,99.672,99.859
639,100.06,99.917,100.03
640,99.72,99.638,99.833
641,100.88,100.56,99.991
642,99.693,99.576,100.03
643,99.5,99.569,99.759
644,99.928,100.12,99.513
645,99.603,99.759,100.06
646,100.65,99.579,99.617
647,99.692,99.574,99.742
648,99.537,100.05,102.47
649,99.713,99.522,99.6
650,99.784,99.951,99.574
651,99.564,101.42,99.521
652,99.942,99.685,99.509
653,99.906,100.67,100.99
654,99.544,99.737,99.665
655,99.548,99.67,99.903
656,99.941,100.51,99.872
657,100.67,99.721,100.49
658,99.875,99.705,99.777
659,99.577,99.5,99.586
660,99.631,100.02,99.525
661,99.669,99.612,99.531
662,100.41,99.572,99.814
663,99.841,99.756,99.532
664,99.616,99.735,99.574
665,99.996,99.659,100.57
666,99.619,99.513,99.544
667,99.573,99.654,101.27
668,99.587,99.858,99.582
669,99.484,99.527,99.593
670,99.721,99.527,99.762
671,99.571,99.606,100.35
672,99.536,99.557,99.689
673,99.537,100.18,99.705
674,99.666,99.818,99.742
675,99.622,99.533,99.612
676,99.515,99.661,100.11
677,99.638,99.844,99.495
678,99.606,99.553,99.667
679,99.672,99.635,99.533
680,99.842,99.494,99.606
681,99.54,100.64,99.636
682,99.595,99.619,99.508
683,99.605,99.627,99.563
684,99.562,99.558,99.548
685,99.542,99.493,99.509
686,100.5,99.663,99.637
687,99.618,99.589,99.478
688,99.507,99.498,99.557
689,99.501,99.769,99.883
690,99.486,99.476,99.743
691,99.578,100.06,99.751
692,99.525,99.511,99.497
693,99.5,99.567,99.478
694,99.52,99.594,99.691
695,99.503,99.5,99.548
696,99.487,99.559,99.523
697,99.714,99.93,99.771
698,100.26,99.623,99.537
699,99.481,99.858,99.482
700,99.555,99.593,99.551
701,99.527,99.551,99.558
702,100.15,99.59,99.491
703,99.564,99.615,99.504
704,99.567,99.568,99.507
705,99.507,99.473,99.528
706,99.52,99.498,99.894
707,99.519,99.554,99.505
708,99.489,99.48,99.582
709,99.789,99.68,99.58
710,99.678,99.473,99.652
711,99.6,99.497,99.48
712,99.492,99.521,99.702
713,99.479,99.491,99.55
714,99.514,99.672,99.485
715,99.513,99.638,99.516
716,100.57,99.506,99.469
717,99.482,99.468,99.476
718,99.539,99.48,99.494
719,99.552,99.572,99.895
720,99.468,99.821,99.478
721,101.45,99.505,99.496
722,99.504,99.478,100.28
