0,74.381,74.381,74.381
1,74.903,74.882,74.872
2,75.096,75.139,75.367
3,76.163,75.836,75.91
4,76.539,76.143,76.378
5,77.583,77.357,77.152
6,77.481,76.533,77.286
7,77.511,77.145,78.203
8,77.202,77.437,77.114
9,78.239,77.924,76.054
10,77.51,79.168,77.561
11,78.674,79.599,79.021
12,79.12,79.622,78.4
13,78.463,81.189,78.944
14,80.976,78.414,82.062
15,79.323,81.91,78.357
16,79.455,80.393,79.614
17,80.858,81.524,79.615
18,83.286,80.037,79.055
19,81.91,80.56,79.692
20,82.546,83.118,82.247
21,83.945,82.488,83.696
22,81.669,81.068,83.199
23,84.956,86.441,83.926
24,84.005,85.132,84.854
25,87.595,84.265,86.942
26,86.966,84.483,85.526
27,85.972,83.865,84.589
28,83.152,85.747,84.936
29,87.462,86.116,86.712
30,85.88,86.57,84.469
31,85.938,84.934,86.51
32,88.342,90.195,86.957
33,87.743,86.791,86.868
34,88.221,85.747,88.413
35,88.161,85.982,82.545
36,89.422,90.493,89.524
37,88.687,91.47,84.644
38,90.637,87.595,89.231
39,86.012,90.025,88.916
40,94.826,90.167,90.996
41,91.073,91.774,89.877
42,88.625,85.275,90.687
43,84.027,89.578,86.116
44,90.973,88.944,88.311
45,93.103,91.954,86.951
46,91.152,91.507,86.377
47,87.617,93.854,90.969
48,97.35,93.082,93.861
49,93.146,91.307,92.073
50,91.152,89.102,95.437
51,94.571,96.039,90.624
52,91.558,87.562,88.4
53,93.062,94.362,94.8
54,96.295,94.861,91.939
55,95.501,95.039,95.825
56,95.936,92.237,94.045
57,95.135,98.37,93.412
58,94.298,89.29,96.93
59,96.15,90.698,92.237
60,92.724,89.252,89.995
61,91.169,92.757,90.767
62,93.858,89.053,97.382
63,95.237,95.503,98.585
64,93.163,97.126,94.339
65,94.074,96.424,96.365
66,100.45,93.415,97.948
67,94.696,93.441,92.454
68,96.423,98.658,95.757
69,92.57,97.2,95.964
70,98.933,95.389,99.933
71,97.111,99.841,93.114
72,97.409,94.348,95.792
73,97.222,92.072,96.79
74,94.678,98.797,100.35
75,92.075,94.755,98.63
76,99.294,98.329,94.331
77,98.763,94.933,99.945
78,96.533,100.89,97.806
79,97.884,99.238,101.2
80,96.922,99.149,96.352
81,96.347,94.984,93.639
82,100.88,99.607,99.301
83,85.518,101.22,95.523
84,102.06,97.952,98.748
85,99.218,97.762,100.17
86,100.26,100.54,100.95
87,100.08,97.803,97.299
88,97.283,101.62,96.703
89,97.714,88.303,99.149
90,99.817,100.24,102.05
91,101.05,101.1,94.677
92,97.149,98.154,100.02
93,98.262,100.11,98.502
94,100.44,103.24,101.55
95,101.79,98.721,98.11
96,101.67,97.922,99.995
97,95.792,95.093,100.82
98,100.94,100.49,100.47
99,99.674,101.67,98.421
100,99.445,98.78,98.981
101,97.35,103.21,96.216
102,100.51,99.637,97.149
103,99.264,103.85,104.13
104,101.47,100.46,98.713
105,102.52,102.96,100.17
106,101.36,105.63,103.97
107,102.06,97.125,100.76
108,102.5,102.19,104.86
109,94.884,102.19,99.034
110,99.169,96.382,98.017
111,104.89,99.174,98.203
112,99.476,102.66,99.879
113,102.84,102.66,102.43
114,103.61,102.5,104.18
115,103.83,103.46,104.48
116,100.16,106.81,104.77
117,101.2,103.62,102.29
118,102.77,103.2,97.774
119,103.54,102.36,103.45
120,102.03,94.61,102.96
121,104.52,103.33,101.31
122,99.928,103.37,102.98
123,105.02,104.79,102.64
124,107.3,104.63,103.36
125,105.08,105.02,105.27
126,101.58,104.73,100.45
127,105.12,101.6,99.934
128,101.47,104.15,103.12
129,103.77,101.13,104.93
130,103.32,103.11,100.78
131,102.34,102.04,105.33
132,104.6,105.27,102.95
133,100.05,105.01,105.27
134,101.93,103.95,105.75
135,107.04,105.79,105.12
136,101.51,105.84,106.99
137,104.4,104.89,106.92
138,102.67,105.51,101.84
139,107.62,98.826,99.032
140,105.27,103.38,106.72
141,106.63,106.06,107.09
142,103.33,104.79,104.4
143,104.18,105.2,106.9
144,98.825,106.15,104.91
145,104.32,102.11,105.87
146,102.25,105.13,107.12
147,104.87,100.44,100.19
148,103.55,105.95,103.77
149,106.32,102.12,103.2
150,105.4,106.96,105.01
151,107.57,101.97,99.619
152,106.39,107.87,103.2
153,108.93,107.06,108.49
154,107.67,105.58,104.77
155,103.93,105.65,107.88
156,108.52,106.91,106.65
157,104.72,106.69,105.24
158,107.11,104.89,107.21
159,106.56,102.27,103.66
160,105.46,106.76,106.9
161,107.26,107.48,107.38
162,108.48,106.38,101.35
163,105.32,108.66,107.18
164,106.64,106.51,106.7
165,103.81,108.64,105.22
166,107.77,107.22,107.16
167,103.36,109.35,107.01
168,101.72,105.3,97.54
169,103.4,107.64,102.76
170,108.33,107.84,107.08
171,103.46,106.32,104
172,108.2,103.49,109.11
173,108.4,107.79,107.91
174,104.34,105.85,106.7
175,108.2,104.75,107.25
176,106.73,107.01,107.16
177,108.46,107.22,108.17
178,107.53,105.56,108.54
179,99.551,109.12,108.15
180,107.14,105.49,107.48
181,107.54,108.31,105.54
182,108.75,104.79,108.21
183,109.07,108.99,107.87
184,108.47,105.71,105.8
185,107.35,104.49,108.84
186,108.07,106.39,109.39
187,109.21,109.07,108.73
188,108.26,107.21,109.53
189,108.3,108.36,109.27
190,107.16,108.74,107.5
191,107.85,108.18,100.97
192,108.96,105.77,106.31
193,108.31,108.91,108.37
194,106.9,107.72,107.17
195,107.91,106.75,108.25
196,108.15,110.04,108.85
197,109.11,107.17,105
198,108.22,109.46,104.07
199,106.94,107.25,108.51
200,103.94,104.51,108.51
201,109.66,105.81,109.75
202,106.93,108.13,107.14
203,109.17,108.76,109.02
204,108.44,110.06,108.28
205,107.41,110.17,109.3
206,107.13,110.02,108.41
207,109.02,108.75,109.03
208,109.72,108.69,109.97
209,109.7,106.93,109.45
210,109.31,109.09,107.74
211,107.31,106.3,104.46
212,108.66,105.83,109.14
213,109.64,109.45,106.95
214,108.72,107.39,109.57
215,106.92,109.56,107.19
216,104.95,106.39,109.17
217,104.82,110.42,105.65
218,109.47,109.75,105.45
219,106.76,109.1,109.19
220,109.7,109.14,107.39
221,109.27,109.82,108.76
222,109.96,109.74,107.03
223,109.64,109.89,109.06
224,107.38,109.65,109.58
225,108.82,105.18,108.47
226,109.53,107.69,108.71
227,110.1,108.63,107.58
228,108.85,109.41,105.66
229,109.8,109.21,108.2
230,108.94,107.96,109.53
231,108.99,108.53,108.58
232,108.48,107.57,109.7
233,107.75,108.32,109.87
234,109.06,106.72,109.49
235,109.85,109.09,109.85
236,106.67,105.22,109.03
237,110.06,107.31,109.77
238,109.66,107.46,109.27
239,106.13,110.31,108.42
240,107.48,109.63,107.73
241,109.72,107.39,106.99
242,110.35,108.11,108.89
243,109.16,110.2,107.24
244,108.85,110.35,108.25
245,109.74,109.92,108.2
246,110.18,109.9,109.73
247,109.37,110.51,107.29
248,106.92,109.07,109.69
249,109.96,110.51,109.19
250,108.99,106.53,108.3
251,108.41,107.15,109.03
252,109.71,109.76,107.19
253,110.28,109.05,108.68
254,108.33,110.14,109.09
255,110.01,110.6,109.51
256,108.62,106.74,109.58
257,109.59,109.7,110.03
258,110.25,107.17,107.11
259,109.17,109.57,110.24
260,110.32,109.28,109.27
261,110.07,107.35,108.96
262,109.5,110.67,107.77
263,109.46,108.5,110.28
264,108.91,109.8,110.38
265,108.93,109.16,109.88
266,108.92,108.89,109.73
267,110.5,104,109.89
268,110.12,108.73,109.6
269,109.82,109.29,110.51
270,110.14,109.45,109.39
271,106.34,108.9,110.3
272,109.53,110.02,108.83
273,108.54,109.51,109.33
274,109.42,110.08,109.5
275,108.31,110.17,110.63
276,108.83,109.69,110.61
277,109.21,107.67,110.39
278,109.87,110.24,108.95
279,109.68,108.06,109.94
280,109.81,109.92,108.81
281,109.91,109.87,110.43
282,110.23,110.22,110.37
283,109.22,109.7,110.13
284,110.24,109.93,109.43
285,108.52,109.42,109.65
286,108.36,110.43,110.04
287,109.97,108.08,110.34
288,109.79,108.72,109.78
289,110.3,109.97,110.19
290,110.66,110.38,109.84
291,110.64,110.16,108.77
292,109.64,108.4,110.18
293,110.25,110.06,110.13
294,109.88,110.15,110.09
295,109.65,110.26,110.41
296,110.1,110.26,108.96
297,108.77,109.68,106.12
298,108.36,110.34,110.04
299,110.65,110.08,110.56
300,106.44,109.56,110.11
301,106.44,109.56,110.11
302,106.76,109.79,110.43
303,106.86,110.11,110.7
304,107.53,110.44,111
305,107.68,110.67,111.46
306,108.36,111.27,111.84
307,108.89,111.02,112.1
308,108.63,111.82,111.77
309,109.42,111.71,111.21
310,109.1,111.71,112.96
311,110.12,112.26,112.43
312,109.9,112.44,112.77
313,109.84,113.13,113.89
314,111.72,112.98,113.52
315,110.25,111.71,113.57
316,111.26,113.01,113.94
317,112.15,113.99,114.66
318,111.25,113.76,114.81
319,113.64,114.22,115.98
320,111.29,114.09,114.86
321,111.4,116.21,115.14
322,113.27,114.72,114.18
323,113.96,114.94,116.44
324,113.9,116.35,115.09
325,112.67,115.73,114.94
326,114.13,115.98,114.75
327,116.22,116.44,116.43
328,115.18,114.49,114.95
329,114.26,117.17,116.2
330,114.98,115.04,117.93
331,115.32,115.97,117.36
332,114.49,117.11,116.98
333,116.26,116.19,115.94
334,114.65,118.06,117.74
335,114.63,116.82,118.28
336,116.04,115.98,116.82
337,117.08,115.89,117.98
338,111.86,117.09,118.93
339,115.03,114.43,118.9
340,118.84,119.83,117.39
341,113.54,116.91,118.74
342,118.44,119.24,119.07
343,117.11,117.55,118.09
344,116.94,119.3,116.32
345,116.75,119.9,117.82
346,118.99,118.56,118.41
347,117.01,118.33,118.86
348,118.84,120.67,120.4
349,117.59,118.32,118.54
350,117.95,120.28,117.71
351,118.53,120.56,118.95
352,118.49,119.8,117.31
353,116.74,120.15,120.61
354,115.05,119.4,120.3
355,120.94,120.41,119.89
356,119.26,121.29,120.26
357,118.84,119.53,121.01
358,117.88,120.46,117.8
359,118.29,121.55,120.26
360,119.32,120.28,122.04
361,120.57,119.93,118.77
362,119.59,119.53,120.8
363,116.92,121.2,120.63
364,115.86,121.33,121.68
365,119.06,119.29,120.14
366,120.52,121.67,120.05
367,118.06,120.5,119.37
368,119.63,121.3,121.49
369,118.82,121.12,120.95
370,118.82,120.68,121.64
371,120.85,119.99,121.23
372,120.22,122.03,120.89
373,119.72,120.99,120.61
374,119.34,119.77,122.11
375,120.83,121.29,119.18
376,120.92,121.48,120.82
377,121.24,120.84,121.62
378,120.01,122.36,121.85
379,120.16,120.84,122.62
380,120.19,121.81,121.59
381,122.26,120.96,121.32
382,121.53,121.03,121.71
383,121.51,121.84,119.44
384,120.8,121.56,122.21
385,122.28,122.58,121.32
386,121.55,121.05,122.28
387,121.17,123.24,121.44
388,121.81,121.06,119.13
389,119.57,122.6,121.44
390,121.62,120.1,121.25
391,120.15,122.51,122.87
392,121.86,122.89,123.17
393,120.76,122.1,121.89
394,118.12,122.46,122.57
395,119.67,121.89,122.12
396,122.65,122.26,121.22
397,121.45,122.58,120.37
398,122.14,122.47,122.58
399,123.26,122.93,123.21
400,122.27,121.77,122.71
401,121.72,122.34,120.83
402,120.49,122.34,121.97
403,122.91,121.76,122.2
404,123.17,121.43,120.86
405,122.61,121.73,122.5
406,122.47,122.34,122.53
407,121.09,123.33,122.05
408,122.06,121.41,120.16
409,123.41,122.86,123.47
410,122.69,122.5,121.9
411,122.22,122.96,122.94
412,121.82,122.94,123.17
413,122.75,121.62,122.87
414,121.98,122.72,123.52
415,123.22,123.38,121.95
416,122.83,123.14,122.38
417,123.08,123.26,122.39
418,122.48,123.32,123.36
419,123.1,123.12,122.38
420,122.37,123.37,122.72
421,122.46,123.69,121.49
422,122.46,123.69,121.49
423,121.74,123.19,120.92
424,121.65,122.56,120.19
425,120.58,122.49,119.74
426,120.12,121.13,119.52
427,119.91,121.14,118.21
428,118.64,119.97,118.6
429,119.24,120.93,117.81
430,116.04,117.46,116.91
431,117.34,119.37,114.77
432,116.39,117.19,116.77
433,116.35,117.21,114.62
434,116.73,115.84,115.73
435,114.12,117.72,114.09
436,114.86,115.47,113.46
437,115.58,117.05,116.97
438,114.2,116.89,115.83
439,113.9,115.77,112.79
440,113.11,111.26,113.14
441,112.76,112,113.3
442,113.38,112.73,112.51
443,114.02,115.74,111.98
444,110.91,113.6,109.58
445,113.22,111.01,109.65
446,109.04,112.76,110.33
447,113.07,111.05,113.09
448,110.46,108.65,111.33
449,107.98,112.29,109.28
450,111.04,109.64,110.55
451,109.96,113.8,108.25
452,106.91,107.69,106.21
453,110.35,109.81,112.05
454,109.1,108.2,110.44
455,109.63,107.32,106.38
456,107.03,110.43,107.62
457,106.11,112.23,115.21
458,106.01,109.35,105.62
459,109.96,108.64,106.47
460,105.36,105.53,107.06
461,106.24,106.94,105.38
462,103.95,107.48,105.41
463,107.48,109.54,104.68
464,104.12,105.62,103.12
465,106.17,103.28,106.58
466,103.65,105.89,102.63
467,107.37,109.59,107.81
468,102.53,105.13,102.35
469,102.57,105.74,105.09
470,107.25,104.42,106.98
471,104.26,106.47,102.62
472,102.81,104.68,103.83
473,105.34,106.35,101.96
474,101.82,106.49,107.07
475,103.45,106.14,102.38
476,103.4,104.35,104.53
477,102.72,107.35,103.41
478,101.88,100,103.82
479,106.09,102.25,104.01
480,104.79,102.6,102.91
481,102.86,100.9,101.65
482,103.62,105.53,104.03
483,104.11,103.05,104.4
484,103.06,102.3,102.25
485,100.76,105.54,103.08
486,102.95,102.45,102.74
487,100.36,101.33,101.95
488,101.39,101.28,99.718
489,101.76,108.63,102.56
490,100.21,105.74,98.898
491,99.46,102.93,99.587
492,100.3,105.36,103.57
493,101.2,101.16,104.58
494,103.76,102.69,103.51
495,101.16,100.55,98.816
496,98.738,101.76,102.92
497,102.13,101.89,99.714
498,101.55,100.32,101.67
499,101.63,98.753,99.414
500,101.18,99.483,100.8
501,97.982,99.625,101.46
502,98.208,99.131,99.864
503,98.226,99.973,102
504,98.966,99.134,98.149
505,99.807,99.913,99.991
506,99.674,102.11,104.6
507,100.99,101.42,99.129
508,98.278,98.82,100.42
509,101.3,97.843,104.16
510,100.15,100.6,101.25
511,98.738,102.67,101.62
512,100.45,101.19,97.235
513,98.951,99.248,100.9
514,99.232,98.287,98.344
515,99.279,99.795,98.881
516,100.3,101.98,100.24
517,98.684,98.772,98.248
518,100.93,101.72,99.122
519,101.63,98.217,97.531
520,100.51,100.07,101.94
521,98.043,99.459,98.608
522,98.528,98.854,97.464
523,102.75,97.662,98.39
524,99.54,99.607,98.986
525,99.7,97.879,99.179
526,98.354,97.597,97.648
527,97.629,97.146,98.164
528,97.948,99.274,97.969
529,98.218,98.049,100.95
530,99.782,98.977,98.126
531,97.634,98.552,96.525
532,98.067,98.929,99.042
533,99.211,96.988,97.705
534,97.675,97.883,99.011
535,100.22,97.399,98.372
536,97.715,97.658,97.694
537,97.021,96.636,97.851
538,97.271,100.9,98.417
539,97.149,97.377,97.114
540,97.124,96.486,98.774
541,98.262,99.048,96.838
542,101.86,98.173,101.17
543,98.353,97.791,98.861
544,100.08,96.921,97.347
545,97.349,97.85,97.735
546,97.268,96.575,97.833
547,96.856,98.836,96.771
548,97.216,97.078,97.285
549,96.884,96.645,97.617
550,97.455,99.222,96.583
551,96.708,96.919,98.031
552,97.425,104.58,97.1
553,98.185,97.792,97.712
554,98.454,97.668,98.749
555,97.241,97.627,98.588
556,97.052,96.9,96.474
557,97.983,96.948,97.096
558,100.13,97.928,98.257
559,96.947,97.292,97.292
560,96.814,97.884,96.712
561,97.438,97.135,97.573
562,98.785,96.926,96.787
563,96.804,98.252,96.711
564,97.169,96.342,96.88
565,97.784,97.302,96.619
566,96.236,97.375,96.814
567,97.152,96.506,96.892
568,99.367,96.24,97.097
569,98.142,97.512,96.347
570,96.75,96.834,97.222
571,98.015,96.962,96.672
572,96.419,96.528,97.726
573,99.798,96.962,96.821
574,96.942,98.231,97.373
575,101.08,97.612,97.059
576,97.658,97.004,96.343
577,99.643,96.687,96.786
578,96.794,96.616,99.854
579,96.236,96.471,96.641
580,98.454,98.159,96.766
581,96.678,96.941,96.542
582,97.648,96.533,96.535
583,96.691,97.749,96.518
584,96.406,98.532,97.42
585,96.948,96.828,96.836
586,96.411,97.084,97.345
587,96.642,96.169,97.875
588,97.33,97.425,96.31
589,96.361,99.085,96.84
590,96.383,96.67,96.324
591,96.416,96.728,96.71
592,96.983,96.458,97.617
593,97.462,96.427,96.512
594,96.407,96.425,96.196
595,98.689,96.553,96.999
596,96.582,96.335,96.34
597,96.475,96.53,96.253
598,97.003,96.615,97.341
599,96.449,96.244,96.538
600,96.714,96.328,96.258
601,96.43,96.625,97.538
602,96.141,96.849,96.509
603,96.202,97.136,96.62
604,96.607,96.161,96.73
605,96.592,97.447,96.116
606,96.3,97.072,97.084
607,96.628,96.348,96.285
608,98.189,97.353,96.206
609,96.439,97.079,97.229
610,96.341,96.183,96.376
611,96.445,96.706,99.682
612,96.181,96.545,96.386
613,96.222,96.382,96.271
614,96.85,96.647,96.164
615,96.159,96.38,96.293
616,96.227,97.415,96.135
617,96.659,96.099,96.936
618,96.286,96.29,96.61
619,96.173,96.328,97.713
620,96.232,96.494,96.164
621,96.327,96.393,96.226
622,96.25,96.742,96.058
623,96.536,97.477,96.485
624,96.125,96.208,96.125
625,96.182,96.349,96.372
626,96.801,96.122,96.3
627,96.268,97.461,96.276
628,98.419,96.169,96.687
629,96.553,96.318,96.349
630,96.102,97.537,96.256
631,96.213,96.474,96.158
632,96.232,96.16,96.267
633,96.113,96.079,96.173
634,96.282,96.854,96.59
635,96.372,96.273,97.229
636,96.214,96.144,96.093
637,96.084,96.276,96.308
638,96.327,96.27,96.08
639,96.126,96.535,97.045
640,96.145,96.11,96.22
641,97.55,96.103,96.174
642,96.406,96.164,96.171
643,96.631,96.135,96.823
644,96.165,96.072,96.229
645,96.181,96.063,96.186
646,96.486,96.226,96.388
647,96.273,96.355,96.074
648,96.774,96.149,96.082
649,96.103,96.109,96.721
650,96.06,96.456,96.06
651,96.07,96.286,96.216
652,96.09,96.05,96.156
653,96.478,96.327,96.231
654,96.44,96.109,96.239
655,96.452,96.897,96.185
656,96.125,96.174,96.177
657,96.132,96.055,96.091
658,96.161,96.313,96.251
659,96.123,96.621,96.09
660,96.093,96.08,96.384
661,96.051,96.173,96.103
662,96.525,96.255,96.086
663,96.116,96.356,96.575
664,96.107,96.208,96.082
665,96.295,96.085,96.199
666,96.057,96.05,96.343
667,96.165,96.171,96.119
668,96.295,96.133,96.077
669,96.068,96.142,97.688
670,96.237,96.089,96.057
671,96.077,96.27,96.045
672,96.044,96.124,96.073
673,96.074,96.091,96.494
674,96.38,96.25,96.078
675,96.073,96.502,96.154
676,96.089,96.067,96.135
677,96.187,96.062,97.06
678,96.181,96.558,96.149
679,96.046,96.225,96.184
680,96.218,96.124,96.093
681,96.042,96.113,96.064
682,97.689,96.062,96.122
683,96.079,96.1,96.095
684,96.357,96.082,96.147
685,96.042,96.458,96.052
686,96.38,96.07,96.142
687,96.511,96.243,96.071
688,96.213,96.192,96.16
689,96.047,96.593,96.165
690,96.217,96.065,96.328
691,96.245,96.23,96.368
692,96.073,96.072,96.065
693,96.044,96.075,96.172
694,96.043,96.105,96.466
695,96.265,96.062,96.056
696,96.048,96.07,96.475
697,96.206,96.571,96.092
698,96.094,96.121,96.102
699,96.051,96.041,96.07
700,96.054,96.556,96.148
701,96.084,96.108,96.067
702,96.149,96.132,96.075
703,96.098,96.061,96.045
704,96.154,96.05,96.169
705,96.097,96.076,96.625
706,96.114,96.119,96.081
707,96.061,96.172,96.115
708,96.082,96.115,96.049
709,96.6,96.08,96.073
710,96.256,96.654,96.057
711,96.099,96.063,96.081
712,96.072,96.054,96.144
713,96.05,96.071,96.128
714,96.682,96.106,96.2
715,96.094,96.062,96.095
716,96.042,96.096,96.516
717,96.104,96.079,96.062
718,96.044,96.041,96.04
719,96.067,96.058,96.249
720,96.355,96.137,96.055
721,96.061,96.047,96.04
722,96.189,96.116,96.049
